{
    "/js/app.js": "/js/app.js",
    "/js/ckeditor_module.js": "/js/ckeditor_module.js",
    "/js/ckeditor_data.js": "/js/ckeditor_data.js",
    "/js/galery.js": "/js/galery.js",
    "/css/app.css": "/css/app.css"
}
